%YAML 1.1
%TAG !u! tag:unity3d.com,2011:
--- !u!114 &11400000
MonoBehaviour:
  m_ObjectHideFlags: 0
  m_PrefabParentObject: {fileID: 0}
  m_PrefabInternal: {fileID: 0}
  m_GameObject: {fileID: 0}
  m_Enabled: 1
  m_EditorHideFlags: 0
  m_Script: {fileID: 11500000, guid: c5d54c9ac8ea0b3428eff2d22f5eac88, type: 3}
  m_Name: ColorNegative
  m_EditorClassIdentifier: 
  Value: {r: 1, g: 0.7137255, b: 0.28627452, a: 1}
